[api-updater (non-obsolete-error-filter)] 20-01-2021 22:33:18 : Starting C:/Program Files/Unity/Hub/Editor/2020.2.1f1/Editor/Data/Tools/ScriptUpdater/APIUpdater.NonObsoleteApiUpdaterDetector.exe
[api-updater (non-obsolete-error-filter)] 
----------------------------------
jit/startup time      : 510.934ms
moved types parse time: 115ms
candidates parse time : 3ms
C# parse time         : 485ms
candidates check time : 162ms
console write time    : 1ms

[api-updater (non-obsolete-error-filter)] 20-01-2021 22:33:35 : Starting C:/Program Files/Unity/Hub/Editor/2020.2.1f1/Editor/Data/Tools/ScriptUpdater/APIUpdater.NonObsoleteApiUpdaterDetector.exe
[api-updater (non-obsolete-error-filter)] 
----------------------------------
jit/startup time      : 359.5127ms
moved types parse time: 130ms
candidates parse time : 4ms
C# parse time         : 428ms
candidates check time : 115ms
console write time    : 0ms

[api-updater (non-obsolete-error-filter)] 20-01-2021 22:34:02 : Starting C:/Program Files/Unity/Hub/Editor/2020.2.1f1/Editor/Data/Tools/ScriptUpdater/APIUpdater.NonObsoleteApiUpdaterDetector.exe
[api-updater (non-obsolete-error-filter)] 
----------------------------------
jit/startup time      : 244.7641ms
moved types parse time: 85ms
candidates parse time : 2ms
C# parse time         : 422ms
candidates check time : 159ms
console write time    : 0ms

[api-updater (non-obsolete-error-filter)] 20-01-2021 22:34:53 : Starting C:/Program Files/Unity/Hub/Editor/2020.2.1f1/Editor/Data/Tools/ScriptUpdater/APIUpdater.NonObsoleteApiUpdaterDetector.exe
[api-updater (non-obsolete-error-filter)] 
----------------------------------
jit/startup time      : 207.8712ms
moved types parse time: 127ms
candidates parse time : 3ms
C# parse time         : 604ms
candidates check time : 165ms
console write time    : 2ms

[api-updater (non-obsolete-error-filter)] 23-01-2021 16:16:49 : Starting C:/Program Files/Unity/Hub/Editor/2020.2.1f1/Editor/Data/Tools/ScriptUpdater/APIUpdater.NonObsoleteApiUpdaterDetector.exe
[api-updater (non-obsolete-error-filter)] 
----------------------------------
jit/startup time      : 3069.7659ms
moved types parse time: 284ms
candidates parse time : 7ms
C# parse time         : 576ms
candidates check time : 55ms
console write time    : 1ms

[api-updater (non-obsolete-error-filter)] 23-01-2021 16:16:50 : Starting C:/Program Files/Unity/Hub/Editor/2020.2.1f1/Editor/Data/Tools/ScriptUpdater/APIUpdater.NonObsoleteApiUpdaterDetector.exe
[api-updater (non-obsolete-error-filter)] 
----------------------------------
jit/startup time      : 175.2586ms
moved types parse time: 86ms
candidates parse time : 2ms
C# parse time         : 262ms
candidates check time : 84ms
console write time    : 0ms

[api-updater (non-obsolete-error-filter)] 23-01-2021 16:19:58 : Starting C:/Program Files/Unity/Hub/Editor/2020.2.1f1/Editor/Data/Tools/ScriptUpdater/APIUpdater.NonObsoleteApiUpdaterDetector.exe
[api-updater (non-obsolete-error-filter)] 
----------------------------------
jit/startup time      : 90.3378ms
moved types parse time: 63ms
candidates parse time : 2ms
C# parse time         : 207ms
candidates check time : 49ms
console write time    : 0ms

[api-updater (non-obsolete-error-filter)] 23-01-2021 16:19:58 : Starting C:/Program Files/Unity/Hub/Editor/2020.2.1f1/Editor/Data/Tools/ScriptUpdater/APIUpdater.NonObsoleteApiUpdaterDetector.exe
[api-updater (non-obsolete-error-filter)] 
----------------------------------
jit/startup time      : 80.0956ms
moved types parse time: 59ms
candidates parse time : 1ms
C# parse time         : 209ms
candidates check time : 49ms
console write time    : 0ms

[api-updater (non-obsolete-error-filter)] 23-01-2021 16:21:06 : Starting C:/Program Files/Unity/Hub/Editor/2020.2.1f1/Editor/Data/Tools/ScriptUpdater/APIUpdater.NonObsoleteApiUpdaterDetector.exe
[api-updater (non-obsolete-error-filter)] 
----------------------------------
jit/startup time      : 178.7451ms
moved types parse time: 99ms
candidates parse time : 2ms
C# parse time         : 415ms
candidates check time : 55ms
console write time    : 0ms

[api-updater (non-obsolete-error-filter)] 23-01-2021 16:21:07 : Starting C:/Program Files/Unity/Hub/Editor/2020.2.1f1/Editor/Data/Tools/ScriptUpdater/APIUpdater.NonObsoleteApiUpdaterDetector.exe
[api-updater (non-obsolete-error-filter)] 
----------------------------------
jit/startup time      : 76.8626ms
moved types parse time: 58ms
candidates parse time : 1ms
C# parse time         : 212ms
candidates check time : 50ms
console write time    : 0ms

[api-updater (non-obsolete-error-filter)] 31-01-2021 19:41:06 : Starting C:/Program Files/Unity/Hub/Editor/2020.2.1f1/Editor/Data/Tools/ScriptUpdater/APIUpdater.NonObsoleteApiUpdaterDetector.exe
[api-updater (non-obsolete-error-filter)] 
----------------------------------
jit/startup time      : 901.7734ms
moved types parse time: 154ms
candidates parse time : 3ms
C# parse time         : 658ms
candidates check time : 90ms
console write time    : 1ms

[api-updater (non-obsolete-error-filter)] 06-02-2021 22:00:57 : Starting C:/Program Files/Unity/Hub/Editor/2020.2.1f1/Editor/Data/Tools/ScriptUpdater/APIUpdater.NonObsoleteApiUpdaterDetector.exe
[api-updater (non-obsolete-error-filter)] 
----------------------------------
jit/startup time      : 3483.3537ms
moved types parse time: 174ms
candidates parse time : 5ms
C# parse time         : 605ms
candidates check time : 85ms
console write time    : 1ms

[api-updater (non-obsolete-error-filter)] 07-02-2021 22:41:33 : Starting C:/Program Files/Unity/Hub/Editor/2020.2.1f1/Editor/Data/Tools/ScriptUpdater/APIUpdater.NonObsoleteApiUpdaterDetector.exe
[api-updater (non-obsolete-error-filter)] 
----------------------------------
jit/startup time      : 277.2586ms
moved types parse time: 71ms
candidates parse time : 1ms
C# parse time         : 330ms
candidates check time : 88ms
console write time    : 0ms

[api-updater (non-obsolete-error-filter)] 27-02-2021 22:10:30 : Starting C:/Program Files/Unity/Hub/Editor/2020.2.1f1/Editor/Data/Tools/ScriptUpdater/APIUpdater.NonObsoleteApiUpdaterDetector.exe
[api-updater (non-obsolete-error-filter)] 
----------------------------------
jit/startup time      : 5076.4151ms
moved types parse time: 153ms
candidates parse time : 5ms
C# parse time         : 887ms
candidates check time : 176ms
console write time    : 1ms

[api-updater (non-obsolete-error-filter)] 01-03-2021 22:04:21 : Starting C:/Program Files/Unity/Hub/Editor/2020.2.1f1/Editor/Data/Tools/ScriptUpdater/APIUpdater.NonObsoleteApiUpdaterDetector.exe
[api-updater (non-obsolete-error-filter)] 
----------------------------------
jit/startup time      : 692.5073ms
moved types parse time: 186ms
candidates parse time : 5ms
C# parse time         : 576ms
candidates check time : 101ms
console write time    : 1ms

[api-updater (non-obsolete-error-filter)] 19-03-2021 19:44:36 : Starting C:/Program Files/Unity/Hub/Editor/2020.2.1f1/Editor/Data/Tools/ScriptUpdater/APIUpdater.NonObsoleteApiUpdaterDetector.exe
[api-updater (non-obsolete-error-filter)] 
----------------------------------
jit/startup time      : 878.3543ms
moved types parse time: 91ms
candidates parse time : 2ms
C# parse time         : 376ms
candidates check time : 83ms
console write time    : 0ms

[api-updater (non-obsolete-error-filter)] 19-03-2021 19:47:02 : Starting C:/Program Files/Unity/Hub/Editor/2020.2.1f1/Editor/Data/Tools/ScriptUpdater/APIUpdater.NonObsoleteApiUpdaterDetector.exe
[api-updater (non-obsolete-error-filter)] 
----------------------------------
jit/startup time      : 173.9799ms
moved types parse time: 117ms
candidates parse time : 3ms
C# parse time         : 447ms
candidates check time : 101ms
console write time    : 1ms

[api-updater (non-obsolete-error-filter)] 24-03-2021 23:58:29 : Starting C:/Program Files/Unity/Hub/Editor/2020.2.1f1/Editor/Data/Tools/ScriptUpdater/APIUpdater.NonObsoleteApiUpdaterDetector.exe
[api-updater (non-obsolete-error-filter)] 
----------------------------------
jit/startup time      : 634.1924ms
moved types parse time: 105ms
candidates parse time : 11ms
C# parse time         : 392ms
candidates check time : 45ms
console write time    : 1ms

[api-updater (non-obsolete-error-filter)] 26-03-2021 15:38:42 : Starting C:/Program Files/Unity/Hub/Editor/2020.2.1f1/Editor/Data/Tools/ScriptUpdater/APIUpdater.NonObsoleteApiUpdaterDetector.exe
[api-updater (non-obsolete-error-filter)] 
----------------------------------
jit/startup time      : 3204.6034ms
moved types parse time: 131ms
candidates parse time : 2ms
C# parse time         : 532ms
candidates check time : 197ms
console write time    : 4ms

[api-updater (non-obsolete-error-filter)] 28-03-2021 00:30:18 : Starting C:/Program Files/Unity/Hub/Editor/2020.2.1f1/Editor/Data/Tools/ScriptUpdater/APIUpdater.NonObsoleteApiUpdaterDetector.exe
[api-updater (non-obsolete-error-filter)] 
----------------------------------
jit/startup time      : 604.6785ms
moved types parse time: 88ms
candidates parse time : 2ms
C# parse time         : 411ms
candidates check time : 156ms
console write time    : 2ms

[api-updater (non-obsolete-error-filter)] 28-03-2021 00:31:10 : Starting C:/Program Files/Unity/Hub/Editor/2020.2.1f1/Editor/Data/Tools/ScriptUpdater/APIUpdater.NonObsoleteApiUpdaterDetector.exe
[api-updater (non-obsolete-error-filter)] 
----------------------------------
jit/startup time      : 161.6047ms
moved types parse time: 95ms
candidates parse time : 3ms
C# parse time         : 393ms
candidates check time : 155ms
console write time    : 1ms

[api-updater (non-obsolete-error-filter)] 02-04-2021 16:41:19 : Starting C:/Program Files/Unity/Hub/Editor/2020.2.1f1/Editor/Data/Tools/ScriptUpdater/APIUpdater.NonObsoleteApiUpdaterDetector.exe
[api-updater (non-obsolete-error-filter)] 
----------------------------------
jit/startup time      : 877.0287ms
moved types parse time: 178ms
candidates parse time : 4ms
C# parse time         : 814ms
candidates check time : 234ms
console write time    : 2ms

[api-updater (non-obsolete-error-filter)] 16-05-2021 22:45:48 : Starting C:/Program Files/Unity/Hub/Editor/2020.2.1f1/Editor/Data/Tools/ScriptUpdater/APIUpdater.NonObsoleteApiUpdaterDetector.exe
[api-updater (non-obsolete-error-filter)] 
----------------------------------
jit/startup time      : 350.8598ms
moved types parse time: 90ms
candidates parse time : 3ms
C# parse time         : 428ms
candidates check time : 100ms
console write time    : 1ms

[api-updater (non-obsolete-error-filter)] 14-06-2021 16:17:04 : Starting C:/Program Files/Unity/Hub/Editor/2020.2.1f1/Editor/Data/Tools/ScriptUpdater/APIUpdater.NonObsoleteApiUpdaterDetector.exe
[api-updater (non-obsolete-error-filter)] 
----------------------------------
jit/startup time      : 3284.652ms
moved types parse time: 181ms
candidates parse time : 3ms
C# parse time         : 552ms
candidates check time : 100ms
console write time    : 1ms

[api-updater (non-obsolete-error-filter)] 20-06-2021 19:34:33 : Starting C:/Program Files/Unity/Hub/Editor/2020.2.1f1/Editor/Data/Tools/ScriptUpdater/APIUpdater.NonObsoleteApiUpdaterDetector.exe
[api-updater (non-obsolete-error-filter)] 
----------------------------------
jit/startup time      : 587.4479ms
moved types parse time: 107ms
candidates parse time : 1ms
C# parse time         : 379ms
candidates check time : 53ms
console write time    : 1ms

[api-updater (non-obsolete-error-filter)] 20-06-2021 19:35:12 : Starting C:/Program Files/Unity/Hub/Editor/2020.2.1f1/Editor/Data/Tools/ScriptUpdater/APIUpdater.NonObsoleteApiUpdaterDetector.exe
[api-updater (non-obsolete-error-filter)] 
----------------------------------
jit/startup time      : 424.8328ms
moved types parse time: 162ms
candidates parse time : 4ms
C# parse time         : 1139ms
candidates check time : 56ms
console write time    : 0ms

[api-updater (non-obsolete-error-filter)] 21-06-2021 16:33:53 : Starting C:/Program Files/Unity/Hub/Editor/2020.2.1f1/Editor/Data/Tools/ScriptUpdater/APIUpdater.NonObsoleteApiUpdaterDetector.exe
[api-updater (non-obsolete-error-filter)] 
----------------------------------
jit/startup time      : 250.322ms
moved types parse time: 126ms
candidates parse time : 2ms
C# parse time         : 454ms
candidates check time : 109ms
console write time    : 2ms

[api-updater (non-obsolete-error-filter)] 06-08-2021 22:12:02 : Starting C:/Program Files/Unity/Hub/Editor/2020.2.1f1/Editor/Data/Tools/ScriptUpdater/APIUpdater.NonObsoleteApiUpdaterDetector.exe
[api-updater (non-obsolete-error-filter)] 
----------------------------------
jit/startup time      : 888.6234ms
moved types parse time: 118ms
candidates parse time : 3ms
C# parse time         : 494ms
candidates check time : 72ms
console write time    : 1ms

[api-updater (non-obsolete-error-filter)] 23-08-2021 00:30:31 : Starting C:/Program Files/Unity/Hub/Editor/2020.2.1f1/Editor/Data/Tools/ScriptUpdater/APIUpdater.NonObsoleteApiUpdaterDetector.exe
[api-updater (non-obsolete-error-filter)] 
----------------------------------
jit/startup time      : 715.7598ms
moved types parse time: 94ms
candidates parse time : 2ms
C# parse time         : 412ms
candidates check time : 54ms
console write time    : 1ms

[api-updater (non-obsolete-error-filter)] 07-09-2021 21:50:57 : Starting C:/Program Files/Unity/Hub/Editor/2020.2.1f1/Editor/Data/Tools/ScriptUpdater/APIUpdater.NonObsoleteApiUpdaterDetector.exe
[api-updater (non-obsolete-error-filter)] 
----------------------------------
jit/startup time      : 1228.9244ms
moved types parse time: 313ms
candidates parse time : 9ms
C# parse time         : 922ms
candidates check time : 121ms
console write time    : 1ms

[api-updater (non-obsolete-error-filter)] 20-09-2021 17:32:05 : Starting C:/Program Files/Unity/Hub/Editor/2020.2.1f1/Editor/Data/Tools/ScriptUpdater/APIUpdater.NonObsoleteApiUpdaterDetector.exe
[api-updater (non-obsolete-error-filter)] 
----------------------------------
jit/startup time      : 993.2929ms
moved types parse time: 91ms
candidates parse time : 2ms
C# parse time         : 368ms
candidates check time : 49ms
console write time    : 1ms

[api-updater (non-obsolete-error-filter)] 01-10-2021 17:42:22 : Starting C:/Program Files/Unity/Hub/Editor/2020.2.1f1/Editor/Data/Tools/ScriptUpdater/APIUpdater.NonObsoleteApiUpdaterDetector.exe
[api-updater (non-obsolete-error-filter)] 
----------------------------------
jit/startup time      : 2853.0063ms
moved types parse time: 183ms
candidates parse time : 4ms
C# parse time         : 593ms
candidates check time : 47ms
console write time    : 1ms

[api-updater (non-obsolete-error-filter)] 18-10-2021 13:22:45 : Starting C:/Program Files/Unity/Hub/Editor/2020.2.1f1/Editor/Data/Tools/ScriptUpdater/APIUpdater.NonObsoleteApiUpdaterDetector.exe
[api-updater (non-obsolete-error-filter)] 
----------------------------------
jit/startup time      : 1006.8936ms
moved types parse time: 161ms
candidates parse time : 3ms
C# parse time         : 540ms
candidates check time : 72ms
console write time    : 1ms

[api-updater (non-obsolete-error-filter)] 19-12-2021 12:16:33 : Starting D:/Unity/2020.2.1f1/Editor/Data/Tools/ScriptUpdater/APIUpdater.NonObsoleteApiUpdaterDetector.exe
[api-updater (non-obsolete-error-filter)] 
----------------------------------
jit/startup time      : 1828.8937ms
moved types parse time: 86ms
candidates parse time : 1ms
C# parse time         : 982ms
candidates check time : 72ms
console write time    : 0ms

[api-updater (non-obsolete-error-filter)] 1/7/2022 11:17:23 PM : Starting C:/Program Files/Unity/Hub/Editor/2020.3.25f1/Editor/Data/Tools/ScriptUpdater/APIUpdater.NonObsoleteApiUpdaterDetector.exe
[api-updater (non-obsolete-error-filter)] 
----------------------------------
jit/startup time      : 171.8827ms
moved types parse time: 73ms
candidates parse time : 1ms
C# parse time         : 356ms
candidates check time : 119ms
console write time    : 0ms

[api-updater (non-obsolete-error-filter)] 1/7/2022 11:17:57 PM : Starting C:/Program Files/Unity/Hub/Editor/2020.3.25f1/Editor/Data/Tools/ScriptUpdater/APIUpdater.NonObsoleteApiUpdaterDetector.exe
[api-updater (non-obsolete-error-filter)] 
----------------------------------
jit/startup time      : 109.3804ms
moved types parse time: 70ms
candidates parse time : 1ms
C# parse time         : 257ms
candidates check time : 117ms
console write time    : 0ms

[api-updater (non-obsolete-error-filter)] 1/7/2022 11:19:53 PM : Starting C:/Program Files/Unity/Hub/Editor/2020.3.25f1/Editor/Data/Tools/ScriptUpdater/APIUpdater.NonObsoleteApiUpdaterDetector.exe
[api-updater (non-obsolete-error-filter)] 
----------------------------------
jit/startup time      : 109.4053ms
moved types parse time: 70ms
candidates parse time : 2ms
C# parse time         : 260ms
candidates check time : 122ms
console write time    : 0ms

[api-updater (non-obsolete-error-filter)] 1/7/2022 11:23:09 PM : Starting C:/Program Files/Unity/Hub/Editor/2020.3.25f1/Editor/Data/Tools/ScriptUpdater/APIUpdater.NonObsoleteApiUpdaterDetector.exe
[api-updater (non-obsolete-error-filter)] 
----------------------------------
jit/startup time      : 109.3321ms
moved types parse time: 72ms
candidates parse time : 1ms
C# parse time         : 263ms
candidates check time : 69ms
console write time    : 0ms

[api-updater (non-obsolete-error-filter)] 1/8/2022 1:36:38 PM : Starting C:/Program Files/Unity/Hub/Editor/2020.3.25f1/Editor/Data/Tools/ScriptUpdater/APIUpdater.NonObsoleteApiUpdaterDetector.exe
[api-updater (non-obsolete-error-filter)] 
----------------------------------
jit/startup time      : 968.7524ms
moved types parse time: 88ms
candidates parse time : 1ms
C# parse time         : 357ms
candidates check time : 79ms
console write time    : 1ms

